[
  {
    "_id": "4b8cde84-0818-4922-b8a7-c26eeb1988e0",
    "colName": "Session",
    "created": "2022-09-18T22:56:40.820Z",
    "sortNum": 10000,
    "folders": []
  },
  {
    "_id": "73b63728-e22e-49a9-b6cf-d26207793810",
    "colName": "ServiceLocationProgram",
    "created": "2022-09-18T22:57:31.847Z",
    "sortNum": 20000,
    "folders": []
  }
]