{
  "type": "service_account",
  "project_id": "arbortrackers-software",
  "private_key_id": "3d1b6e2eaf01b167d3c51011211aa4c6cb78bf3e",
  "private_key": "-----BEGIN PRIVATE KEY-----\nMIIEvQIBADANBgkqhkiG9w0BAQEFAASCBKcwggSjAgEAAoIBAQC685WVZHTllk6P\nlm9s+onI/PpCgcCc6YdRafRt8HawZi8KWifm/3eABmbxbSqRbL4oKrncVlbQ4MaU\nGhzFwnIiNxo/jibjJ2Wt6VXIoJ7gP2K5Hf0yR1WvnlBvqbl3fHu398BlwslncCgq\nNDcFcNiMUnfw7iWXB0snOO9p8IkZ1Q70p1Hyqk6rxMNpqoS6gsDh8eiqHuXilJl+\nVUSp9fAg5f9huH61Qez6TPHZGmseIO5gR3Tlr6oBTch+2JL65KT2W3m09LhZPbLy\n30BUCgHRIFUFvyj0MGftv/YyAFD+9dDZPHAV8KZArBRqqUrqtvdblUuo348SgxpU\nb1pgwfUtAgMBAAECggEAJFIjqxkPvvUTQUFEV6NbNpGzm00zGykhsZcItn1DyeSo\nWfYHD5FtaZGU2W3Qmd1LGmmmn2Ck0EMDQY3LLj6nRu92qYdYFcS3M/EDyg0uoLmf\n2AA0C1shkhOLZA5Q6p5kOOso1Xxg/bgkDYMEd4mjgKubAtN5uRxhJPciSG5DbKGK\n83u5/R0IbW6XxPwPl6o/zyH0QpT8qwyUpmFnwFvoQyw3CXAq8KsWanvSr1QHCK4F\nj+GHBDS5wUyHcXpVf+IijQlJ3G+AYNsYgYDCM24duxpoIhPPf1LIsSB/D4i8XqSU\n/jl7u9SQ3gSpaRXcPjxNBHR/XT9K9U+XZwa774oPDwKBgQD3rfEpJkgTl2n1OYMP\nzMdpdguAQveFCo3aN1CDOZueWR3S6a5/litaeHr9SNQ1CsmfPBiOh1YuDN/UoNjt\nvS2WENxxgGPyxCzoDBjHVxyZ9YDKBe9T6i579WPgsql1wewW1h0KB8p5A1nNWj+n\nXFgzWmIVT+ECJvhm/r9Q39J/RwKBgQDBO2DUd4QHN3rCiPxof6JmhgMxFy1YQgKh\nqXoIC8JYeV5ukHvel9q+v73tJDM5TvbgMr+LccRg8R3I9fWc7tOMvJVsE9iA+SyN\nPo2JzYqH8+iVWqwP4wGW9rJ5zkeWem7G2pG7f+SY0K2KUFWWKeEeNIpdkc+Rj/+A\nkIuYgJVp6wKBgQCbMLoy9nGjFPSnWunsNHuecQCz1UIScpJ/cLlZ//aqOVyekx1r\nhESV43fszH1q3t+Gjrk0VUiCgj6dlEtYa3js1pPJ6pC1xIX+v9Wm0cZyEYopC57y\nDYIi2ZdDa68SwfeUN4TqjAcp3BegvDO2Qf5h7vgWMn7iQljS8DwgCJ50cQKBgCiG\nvJMzEcS1tRBxzIZaJoRcHPVByCfXiFfBhK+FT9hgdBa6RNB1htI0wq+mxPuC/TIe\nUp/7V1WBnF6Wf1HPoRzGPIxzSRgbqmVhNiwtqJ1E4YXZg3a9hIrV6K61Pbxopy0b\nkC8D7rzCH3N/z8Nzuxwrps1jFGaSDeM37Z8pcKzLAoGADhGkkf/Kojs/q3FMOokg\npeGtOBxNer/cYeR0Uh2fRtK87a0YSQJZ9EhxR4/LWqNmSLA+moZN/SwSmdqhyElL\n6uaypr+xA8WWKsMURavyqsRYDD2xaGQr+ies+1+t3RDhGIv/T6BcweCstt57H3bo\nvJ3Xo0tJjudGMHpfoz7TUHA=\n-----END PRIVATE KEY-----\n",
  "client_email": "519094322500-compute@developer.gserviceaccount.com",
  "client_id": "100362291476857759429",
  "auth_uri": "https://accounts.google.com/o/oauth2/auth",
  "token_uri": "https://oauth2.googleapis.com/token",
  "auth_provider_x509_cert_url": "https://www.googleapis.com/oauth2/v1/certs",
  "client_x509_cert_url": "https://www.googleapis.com/robot/v1/metadata/x509/519094322500-compute%40developer.gserviceaccount.com"
}
