{
    "data": [
      {
        "_id": "1",
        "customer": {
          "_id": "1",
          "name": "customer name 1",
          "seriveLocation": {
            "_id": "1",
            "address": "service location address",
            "coordinates": null
          }
        },
        "program": {
          "_id": "1",
          "title": "Program 1",
          "description": "This is the description",
          "active": true
        },
        "price": 1234,
        "vigency": {
          "from": "2021-01-01",
          "to": "2021-01-01"
        },
        "comments": "This is the description",
        "details": [
          { "title": "Size", "value": "40 sqf"},
          { "title": "Trees", "value": "4 small / 5 big"}
        ],
        "active": true
      },
      {
        "_id": "2",
        "customer": {
          "_id": "2",
          "name": "customer name 2",
          "seriveLocation": {
            "_id": "2",
            "address": "service location address",
            "coordinates": null
          }
        },
        "program": {
          "_id": "2",
          "title": "Program 2",
          "description": "This is the description",
          "active": true
        },
        "price": 1234,
        "vigency": {
          "from": "2021-01-01",
          "to": "2021-01-01"
        },
        "comments": "This is the description",
        "details": [
          { "title": "Size", "value": "40 sqf"},
          { "title": "Trees", "value": "4 small / 5 big"}
        ],
        "active": true
      }
    ]
}
